Cancer Rates in the Borders
…
Cancer Rates in the Borders

Average incidences by cancer type

We can see that the most common cancer site is non-melanoma skin cancer

## # A tibble: 52 x 2
##    cancer_site                           median_incidences
##    <chr>                                             <dbl>
##  1 All cancer types                                    391
##  2 Non-melanoma skin cancer                            130
##  3 Basal cell carcinoma of the skin                     93
##  4 Prostate                                             82
##  5 Breast                                               69
##  6 Trachea, bronchus and lung                           55
##  7 Carcinoma in situ of the cervix uteri                54
##  8 Colorectal cancer                                    54
##  9 Squamous cell carcinoma of the skin                  42
## 10 Colon                                                36
## #  with 42 more rows
…
